Suite/Test/Step Name,Browser,Description,Start time,End time,Duration,Status
POC,,,2018-11-04 16:11:32,2018-11-04 16:11:41,9.438s,FAILED
,,,,,,
Test Cases/Login,,,2018-11-04 16:11:33,2018-11-04 16:11:41,8.035s,FAILED
runWithCucumberRunner,,,2018-11-04 16:11:34,2018-11-04 16:11:41,7.304s,FAILED
