Suite/Test/Step Name,Browser,Description,Start time,End time,Duration,Status
POC,,,2018-11-08 11:58:14,2018-11-08 11:58:31,16.648s,FAILED
,,,,,,
Test Cases/Login,,,2018-11-08 11:58:15,2018-11-08 11:58:31,15.705s,FAILED
runWithCucumberRunner,,,2018-11-08 11:58:16,2018-11-08 11:58:21,5.354s,FAILED
