Suite/Test/Step Name,Browser,Description,Start time,End time,Duration,Status
POC,,,2018-11-06 13:46:30,2018-11-06 13:46:38,8.430s,FAILED
,,,,,,
Test Cases/Login,,,2018-11-06 13:46:31,2018-11-06 13:46:38,7.385s,FAILED
runWithCucumberRunner,,,2018-11-06 13:46:32,2018-11-06 13:46:38,6.452s,FAILED
